<svg xmlns="http://www.w3.org/2000/svg" width="11" height="20.182" viewBox="0 0 11 20.182">
  <g id="facebook_1_" data-name="facebook(1)" transform="translate(1 1)">
    <path id="Path" d="M9,0H6.545A4.336,4.336,0,0,0,2.455,4.545V7.273H0v3.636H2.455v7.273H5.727V10.909H8.182L9,7.273H5.727V4.545a.867.867,0,0,1,.818-.909H9Z" fill="none" stroke="#b2b2b2" stroke-linecap="round" stroke-linejoin="round" stroke-miterlimit="10" stroke-width="2"/>
  </g>
</svg>
