<?xml version="1.0" encoding="utf-8"?>
<!-- Generator: Adobe Illustrator 19.0.0, SVG Export Plug-In . SVG Version: 6.00 Build 0)  -->
<svg version="1.1" id="Layer_1" xmlns="http://www.w3.org/2000/svg" xmlns:xlink="http://www.w3.org/1999/xlink" x="0px" y="0px"
	 viewBox="-41 164.9 512 512" style="enable-background:new -41 164.9 512 512;" xml:space="preserve">
<style type="text/css">
	.st0{fill:#B2B2B2;}
</style>
	<path class="st0" d="M277.1,377.2H111.6V454h83.6c-11.9,31.6-38.4,51.2-73.4,51.2c-46.1,0-87-40.1-87-85.3s41-85.3,87-85.3
		c22.2,0,41,6.8,54.6,20.5l6,6l57.2-57.2l-6.8-6c-26.5-26.5-64.9-40.1-110.9-40.1C29.7,257.8-42,328.6-42,419.9
		S29.7,582,121.8,582c84.5,0,145.1-49.5,156.2-129.7c1.7-10.2,2.6-21.3,2.6-32.4c0-12.8-0.9-25.6-2.6-35.8L277.1,377.2z
		 M261.8,449.8C250.7,522.3,198.6,565,121.8,565c-81.9,0-146.8-64-146.8-145.1s64.9-145.1,146.8-145.1c38.4,0,69.1,10.2,93,29
		l-33.3,33.3c-15.4-12.8-35.8-19.6-59.7-19.6c-56.3,0-104.1,46.9-104.1,102.4S65.5,522.3,121,522.3c46.1,0,82.8-29.9,93-75.1
		l2.6-10.2h-87.9v-42.7h134c0.9,7.7,1.7,17.1,1.7,25.6C264.3,430.1,263.5,440.4,261.8,449.8z"/>
	<path class="st0" d="M418.8,377.2V326h-59.7v51.2h-51.2V437h51.2v51.2h59.7V437H470v-59.7H418.8L418.8,377.2z M452.9,419.9h-51.2
		v51.2h-25.6v-51.2h-51.2v-25.6h51.2v-51.2h25.6v51.2h51.2V419.9z"/>
</svg>
